<svg width="18" height="18" viewBox="0 0 18 18" fill="none" xmlns="http://www.w3.org/2000/svg">
<path d="M5.80942 14.8192C5.58588 14.6001 5.56556 14.2571 5.74846 14.0155L5.80942 13.9462L10.8551 9L5.80942 4.05377C5.58588 3.83462 5.56556 3.49169 5.74846 3.25003L5.80942 3.1808C6.03297 2.96165 6.38278 2.94173 6.62928 3.12103L6.6999 3.1808L12.1906 8.56351C12.4141 8.78266 12.4344 9.1256 12.2515 9.36725L12.1906 9.43649L6.6999 14.8192C6.454 15.0603 6.05532 15.0603 5.80942 14.8192Z" fill="#230B34"/>
</svg>
